<?xml version="1.0" encoding="UTF-8" standalone="no"?>
<!-- Created with Sodipodi ("http://www.sodipodi.com/") -->
<svg xmlns:rdf="http://www.w3.org/1999/02/22-rdf-syntax-ns#" xmlns:cc="http://creativecommons.org/ns#"
     xmlns:dc="http://purl.org/dc/elements/1.1/" id="svg548"
     xmlns="http://www.w3.org/2000/svg" height="480" width="640"
     version="1.1">
    <metadata id="metadata3791">
        <rdf:RDF>
            <cc:Work rdf:about="">
                <dc:format>image/svg+xml</dc:format>
                <dc:type rdf:resource="http://purl.org/dc/dcmitype/StillImage"/>
            </cc:Work>
        </rdf:RDF>
    </metadata>
    <g id="flag" transform="scale(1.25 .93750)">
        <g id="g9387" fill-rule="evenodd" stroke-width="1pt" transform="matrix(.68236 0 0 1.0202 0 .000015434)">
            <rect id="rect555" height="251.77" width="750.33" y="-.000015" x="0" fill="#132c77"/>
            <rect id="rect564" height="250.11" width="750.33" y="251.77" x="0" fill="#c00011"/>
        </g>
    </g>
</svg>
