<?xml version="1.0" encoding="UTF-8" standalone="no"?>
<!-- Created with Sodipodi ("http://www.sodipodi.com/") -->
<svg xmlns:rdf="http://www.w3.org/1999/02/22-rdf-syntax-ns#" xmlns:cc="http://creativecommons.org/ns#"
     xmlns:dc="http://purl.org/dc/elements/1.1/" id="svg378" xmlns="http://www.w3.org/2000/svg" height="480" width="640"
     version="1" y="0" x="0">
    <metadata id="metadata8">
        <rdf:RDF>
            <cc:Work rdf:about="">
                <dc:format>image/svg+xml</dc:format>
                <dc:type rdf:resource="http://purl.org/dc/dcmitype/StillImage"/>
            </cc:Work>
        </rdf:RDF>
    </metadata>
    <g id="flag" fill-rule="evenodd" stroke-width="1pt" transform="scale(.60207 .67733)">
        <rect id="rect171" height="708.66" width="1063" y="0" x="0" fill="#fff"/>
        <rect id="rect403" height="708.66" width="354.33" y="0" x="0" fill="#00267f"/>
        <rect id="rect135" height="708.66" width="354.33" y="0" x="708.66" fill="#f31830"/>
    </g>
</svg>
