<?xml version="1.0" encoding="UTF-8" standalone="no"?>
<!-- Created with Sodipodi ("http://www.sodipodi.com/") -->
<svg xmlns:rdf="http://www.w3.org/1999/02/22-rdf-syntax-ns#" xmlns:cc="http://creativecommons.org/ns#"
     xmlns:dc="http://purl.org/dc/elements/1.1/" id="svg3337" xmlns="http://www.w3.org/2000/svg" height="480"
     width="640" version="1.1">
    <metadata id="metadata3298">
        <rdf:RDF>
            <cc:Work rdf:about="">
                <dc:format>image/svg+xml</dc:format>
                <dc:type rdf:resource="http://purl.org/dc/dcmitype/StillImage"/>
            </cc:Work>
        </rdf:RDF>
    </metadata>
    <g id="flag">
        <g id="g8564" fill-rule="evenodd" stroke-width="1pt" transform="matrix(1.3333 0 0 1 -106.67 0)">
            <rect id="rect1200" height="480" width="160" y="-2.3484e-9" x="80" fill="#0b7226"/>
            <rect id="rect880" height="480" width="160" y="-2.3484e-9" x="240" fill="#ff0"/>
            <rect id="rect1201" height="480" width="160" y="-2.3484e-9" x="400" fill="#bc0000"/>
        </g>
        <polygon id="polygon907" transform="matrix(1.217 0 0 1.2614 108.31 39.077)"
                 points="192.06 142.52 251 142.52 204.47 177.05 221.53 232 175 197.46 128.47 230.43 145.53 177.05 99 142.52 156.39 142.52 175 86"
                 fill="#0b7226"/>
    </g>
</svg>
