<?xml version="1.0" encoding="utf-8"?>
<!-- Generator: Adobe Illustrator 22.0.1, SVG Export Plug-In . SVG Version: 6.00 Build 0)  -->
<svg version="1.1" id="Layer_1" xmlns="http://www.w3.org/2000/svg"  x="0px" y="0px"
	 width="225.9px" height="144.5px" viewBox="0 0 225.9 144.5" enable-background="new 0 0 225.9 144.5" xml:space="preserve">
<path fill="#FCB918" class="shape1" d="M108.9,53.2c-1.3-1.2-2.6-2.5-3.9-3.8C93.4,37.8,83.2,25.3,74.4,12.1v72.1c10-7.7,19.7-16.2,28.9-25.4
	C105.2,57,107,55.1,108.9,53.2"/>
<path fill="#233D7E" class="shape2" d="M108.9,53.2c-1.8,1.9-3.7,3.8-5.5,5.7c-9.2,9.2-18.8,17.6-28.9,25.4H149C134.8,75.5,121.3,65.1,108.9,53.2"
	/>
<path fill="#2BACE2" class="shape3" d="M108.9,53.2c12.5,12,25.9,22.3,40.1,31.1V0C137.8,18.8,124.5,36.7,108.9,53.2"/>
<path fill="#233D7E" class="shape4" d="M18.4,144.3l-0.2-11.8l-1,1.1c0,0-3.8,3.9-5.4,5.5c-1.5-1.6-5.5-5.6-5.5-5.6l-1-1L5,144.3H0
	c0.1-9,0.5-18.9,0.7-23.4c3.1,3.1,9,9,10.6,10.8l0.5,0.5l0.5-0.5c1.4-1.7,7-7.5,10.5-11c0.5,9,0.7,15.1,0.9,23.7L18.4,144.3
	L18.4,144.3z M53.7,144.3c-1.1-2.3-2.4-4.7-3.6-7.2c-3-6.1-6.2-12.5-8.5-17.1h-0.1c-2.8,5.3-8.3,16.4-12.1,24.3H35l0,0
	c0.2-0.4,0.3-0.8,0.5-1.2c0.3-0.6,0.5-1.3,0.8-1.9l0.2-0.4h9.6l0.2,0.4c0.4,0.9,0.9,2.2,1.3,3.1L53.7,144.3L53.7,144.3z M41.2,129.6
	l3.6,7.6h-7L41.2,129.6z M80.8,144.3C80.8,144.2,80.8,144.2,80.8,144.3c-1.2-1.9-2.3-3.9-3.3-5.5c-0.8-1.3-1.4-2.4-1.9-3.1l-0.4-0.6
	l0.6-0.3c2.5-1.2,3-4,3-6.2c0-3.8-2.5-7.7-8-7.7h-11v23.5h5.3v-7.2l5.1-0.1l0.2,0.3c0.1,0.2,2.7,4.2,3.9,6.6
	c0.1,0.3,0.2,0.4,0.2,0.4L80.8,144.3L80.8,144.3z M65.3,125h4.2c2.3,0,3.7,1.5,3.7,4s-1.4,4.2-3.7,4.3l-4.3,0.1V125H65.3z
	 M87.4,144.3h5.5v-23.5h-5.5V144.3z M121.4,120.8h-5V133l-1-1c-0.1-0.1-8.3-7.7-13.5-11.5c-0.1,9.2-0.2,15,0,23.8h5V132l1,0.9
	c0.1,0.1,8.1,7.4,13.5,11.6C121.4,137.7,121.5,128.1,121.4,120.8 M151.8,144.3c-1.1-2.3-2.3-4.7-3.6-7.2c-3-6.1-6.2-12.5-8.5-17.1
	c0,0,0,0-0.1,0c-2.8,5.3-8.3,16.4-12.1,24.3h5.6l0,0c0.2-0.4,0.3-0.8,0.5-1.2c0.3-0.6,0.5-1.3,0.8-1.9l0.2-0.4h9.6l0.2,0.4
	c0.3,0.9,0.9,2.2,1.3,3.1L151.8,144.3L151.8,144.3z M139.3,129.6l3.6,7.6h-7L139.3,129.6z M181.5,144.3c-0.3-8.6-0.5-14.8-0.9-23.7
	c-3.5,3.4-9.1,9.3-10.5,11l-0.5,0.5l-0.5-0.5c-1.6-1.8-7.4-7.7-10.6-10.8c-0.2,4.5-0.6,14.4-0.7,23.4h5l0.3-11.7l1,1
	c0,0,3.9,4,5.5,5.6c1.6-1.6,5.4-5.5,5.4-5.5l1-1.1l0.2,11.8H181.5z M189.9,144.3h5.5v-23.5h-5.5V144.3z M225.9,144.3
	c-1.1-2.3-2.3-4.7-3.6-7.2c-3-6.1-6.2-12.5-8.5-17.1h-0.1c-2.8,5.3-8.3,16.4-12.1,24.3h5.6l0,0c0.2-0.4,0.3-0.8,0.5-1.2
	c0.3-0.6,0.5-1.3,0.8-1.9l0.2-0.4h9.6l0.2,0.4c0.3,0.9,0.9,2.2,1.3,3.1L225.9,144.3L225.9,144.3z M213.3,129.6l3.6,7.6h-7
	L213.3,129.6z"/>
</svg>
